Lecture 13: Data wrangling
…
cleaned_data |>
  select(sc_pre, sc_post)

# A tibble: 284 × 2
# Rowwise: 
   sc_pre sc_post
    <dbl>   <dbl>
 1   3.9     3.8 
 2   5.15    5.26
 3   4.1     4.15
 4   4.65    5.1 
 5   3.65    3.6 
 6   4.35    4.65
 7   4.75    4.4 
 8   4.6     4.65
 9   4.2     4.15
10   5.8     5.75
# ℹ 274 more rows
…
